{
  "Mongo": {
    "host": "mongodb://localhost/comments-api-prod"
  },
  "Passport": {
    "secret": "12dm102d0ad0aispdokqwdjkwlqjeqwe"
  },
  "App": {
    "secret": "dm1o2dj120das0dias0da0idawjdawld"
  }
}